{
	"-": {
		"strokes": [[ { "x": 0, "y": 0 }, {"x": 200,"y": 0 } ]]
	},
	"0": {
		"strokes": [[ {
			"x": 100,
			"y": 0
		}, {
			"x": 0,
			"y": 150
		}, {
			"x": 100,
			"y": 300
		}, {
			"x": 200,
			"y": 100
		}, {
			"x": 100,
			"y": 0
		} ]]
	},
	"1": {
		"strokes": [[ {"x": 0,"y": 0}, {"x": 0,"y": 200} ]]
	},
	"2": {
		"strokes": [[{
			"x": 0,
			"y": 0
		}, {
			"x": 150,
			"y": 0
		}, {
			"x": 0,
			"y": 250
		}, {
			"x": 200,
			"y": 250
		} ]]
	},
	"3":{
		"strokes":[[{"x":20,"y":50},{"x":25,"y":42},{"x":53,"y":22},{"x":75,"y":10},{"x":100,"y":1},{"x":153,"y":0},{"x":171,"y":7},{"x":181,"y":15},{"x":187,"y":23},{"x":194,"y":29},{"x":204,"y":47},{"x":204,"y":84},{"x":198,"y":91},{"x":180,"y":104},{"x":178,"y":104},{"x":170,"y":112},{"x":162,"y":124},{"x":138,"y":147},{"x":124,"y":167},{"x":124,"y":170},{"x":124,"y":166},{"x":142,"y":158},{"x":191,"y":158},{"x":220,"y":181},{"x":229,"y":192},{"x":234,"y":205},{"x":234,"y":249},{"x":233,"y":253},{"x":216,"y":279},{"x":204,"y":291},{"x":190,"y":300},{"x":163,"y":310},{"x":130,"y":316},{"x":114,"y":317},{"x":70,"y":316},{"x":38,"y":307},{"x":25,"y":299},{"x":14,"y":287},{"x":6,"y":275},{"x":0,"y":256},{"x":0,"y":251}]]
	},
	"4":{
		"strokes":[
			[{"x":100,"y":0},{"x":0,"y":100},{"x":200,"y":100}],
			[{"x":100,"y":0},{"x":100,"y":200}]
		]
	},
	"6": {
		"strokes": [[{"x":112,"y":0},{"x":95,"y":0},{"x":57,"y":29},{"x":39,"y":46},{"x":29,"y":57},{"x":21,"y":70},{"x":5,"y":103},{"x":0,"y":148},{"x":0,"y":237},{"x":6,"y":242},{"x":53,"y":270},{"x":62,"y":274},{"x":80,"y":278},{"x":120,"y":278},{"x":137,"y":271},{"x":153,"y":260},{"x":159,"y":249},{"x":160,"y":244},{"x":160,"y":216},{"x":157,"y":201},{"x":146,"y":181},{"x":137,"y":171},{"x":120,"y":160},{"x":101,"y":151},{"x":73,"y":141},{"x":39,"y":141},{"x":8,"y":150},{"x":3,"y":150}]]
	},
	"8": {
		"strokes":[[{"x":77,"y":82},{"x":80,"y":82},{"x":88,"y":78},{"x":98,"y":64},{"x":102,"y":55},{"x":104,"y":49},{"x":104,"y":27},{"x":101,"y":23},{"x":94,"y":16},{"x":81,"y":9},{"x":60,"y":2},{"x":44,"y":0},{"x":16,"y":1},{"x":7,"y":15},{"x":0,"y":32},{"x":0,"y":97},{"x":18,"y":112},{"x":45,"y":128},{"x":70,"y":136},{"x":101,"y":151},{"x":122,"y":169},{"x":133,"y":183},{"x":140,"y":197},{"x":140,"y":230},{"x":138,"y":234},{"x":130,"y":240},{"x":115,"y":246},{"x":48,"y":246},{"x":44,"y":242},{"x":39,"y":232},{"x":38,"y":183},{"x":81,"y":132},{"x":92,"y":114},{"x":99,"y":99},{"x":103,"y":95},{"x":104,"y":89}]]
	},
	"9":{
		"strokes":[[{"x":138,"y":9},{"x":115,"y":2},{"x":78,"y":0},{"x":47,"y":0},{"x":31,"y":5},{"x":10,"y":26},{"x":4,"y":38},{"x":0,"y":57},{"x":0,"y":90},{"x":5,"y":96},{"x":15,"y":103},{"x":24,"y":106},{"x":38,"y":109},{"x":70,"y":109},{"x":75,"y":107},{"x":103,"y":90},{"x":112,"y":82},{"x":119,"y":73},{"x":126,"y":58},{"x":130,"y":34},{"x":132,"y":31},{"x":132,"y":23},{"x":132,"y":41},{"x":144,"y":178},{"x":143,"y":293}]]
	},
	"(": {
		"strokes": [[ {
			"x": 150,
			"y": 0
		}, {
			"x": 0,
			"y": 200
		}, {
			"x": 150,
			"y": 400
		} ]]
	},
	")": {
		"strokes": [[ {
			"x": 0,
			"y": 0
		}, {
			"x": 100,
			"y": 200
		}, {
			"x": 0,
			"y": 400
		} ]]
	},
	"7": {
		"strokes":[ [ {
			"x": 0,
			"y": 0
		}, {
			"x": 200,
			"y": 0
		}, {
			"x": 100,
			"y": 300
		} ]]
	},
	"v": {
		"strokes": [[ {
			"x": 0,
			"y": 0
		}, {
			"x": 100,
			"y": 200
		}, {
			"x": 200,
			"y": 0
		} ]]
	},
	"റ": {
		"strokes": [[ {
			"x": 49,
			"y": 243
		}, {
			"x": 0,
			"y": 88
		}, {
			"x": 116,
			"y": 0
		}, {
			"x": 277,
			"y": 84
		}, {
			"x": 222,
			"y": 261
		} ]]
	},
	"ത": {
		"strokes": [[ {
			"x": 74,
			"y": 267
		}, {
			"x": 0,
			"y": 44
		}, {
			"x": 150,
			"y": 9
		}, {
			"x": 274,
			"y": 75
		}, {
			"x": 297,
			"y": 218
		}, {
			"x": 227,
			"y": 294
		}, {
			"x": 114,
			"y": 119
		}, {
			"x": 315,
			"y": 0
		}, {
			"x": 404,
			"y": 97
		}, {
			"x": 423,
			"y": 298
		} ]]
	},
	"ി": {
		"strokes": [[{"x":0,"y":56},{"x":0,"y":54},{"x":15,"y":31},{"x":35,"y":13},{"x":47,"y":6},{"x":69,"y":0},{"x":89,"y":0},{"x":101,"y":5},{"x":112,"y":16},{"x":116,"y":18},{"x":126,"y":32},{"x":134,"y":57},{"x":135,"y":74},{"x":134,"y":284}]]
	},
	"ീ": {
		"strokes": [[{"x":32,"y":9},{"x":34,"y":21},{"x":39,"y":32},{"x":39,"y":51},{"x":32,"y":56},{"x":25,"y":58},{"x":11,"y":58},{"x":2,"y":49},{"x":0,"y":41},{"x":0,"y":16},{"x":9,"y":9},{"x":19,"y":4},{"x":31,"y":2},{"x":52,"y":0},{"x":88,"y":0},{"x":90,"y":1},{"x":96,"y":15},{"x":101,"y":33},{"x":105,"y":67},{"x":107,"y":239}]]
	},
	"ല": {
		"strokes":[[{"x":0,"y":103},{"x":61,"y":103},{"x":69,"y":106},{"x":88,"y":109},{"x":112,"y":110},{"x":120,"y":103},{"x":122,"y":97},{"x":123,"y":69},{"x":121,"y":65},{"x":100,"y":43},{"x":89,"y":35},{"x":79,"y":31},{"x":39,"y":23},{"x":14,"y":23},{"x":8,"y":29},{"x":0,"y":55},{"x":0,"y":219},{"x":1,"y":229},{"x":4,"y":232},{"x":43,"y":231},{"x":56,"y":226},{"x":87,"y":223},{"x":106,"y":217},{"x":121,"y":215},{"x":280,"y":213},{"x":285,"y":217},{"x":290,"y":218},{"x":290,"y":180},{"x":282,"y":115},{"x":280,"y":52},{"x":277,"y":33},{"x":277,"y":0}]]
	},
	"ര": {
		"strokes": [[{"x":39,"y":283},{"x":34,"y":280},{"x":13,"y":241},{"x":6,"y":225},{"x":2,"y":212},{"x":0,"y":171},{"x":0,"y":104},{"x":8,"y":83},{"x":32,"y":55},{"x":58,"y":31},{"x":87,"y":11},{"x":99,"y":5},{"x":111,"y":2},{"x":130,"y":0},{"x":183,"y":1},{"x":203,"y":15},{"x":240,"y":50},{"x":252,"y":65},{"x":266,"y":90},{"x":270,"y":110},{"x":270,"y":167},{"x":267,"y":180},{"x":263,"y":188},{"x":229,"y":232},{"x":208,"y":246},{"x":196,"y":248},{"x":170,"y":248},{"x":153,"y":240},{"x":145,"y":234},{"x":138,"y":224},{"x":131,"y":210},{"x":129,"y":197},{"x":129,"y":159},{"x":134,"y":145},{"x":147,"y":124},{"x":190,"y":73},{"x":207,"y":59},{"x":223,"y":49},{"x":240,"y":42},{"x":253,"y":40}]]
	},
	"ന": {
		"strokes": [[{"x":11,"y":280},{"x":11,"y":258},{"x":0,"y":180},{"x":0,"y":112},{"x":2,"y":89},{"x":15,"y":68},{"x":19,"y":64},{"x":36,"y":53},{"x":48,"y":51},{"x":75,"y":51},{"x":114,"y":76},{"x":126,"y":88},{"x":154,"y":133},{"x":161,"y":147},{"x":178,"y":199},{"x":188,"y":247},{"x":188,"y":256},{"x":188,"y":123},{"x":190,"y":105},{"x":197,"y":90},{"x":209,"y":72},{"x":255,"y":35},{"x":276,"y":22},{"x":318,"y":5},{"x":343,"y":0},{"x":365,"y":0},{"x":374,"y":8},{"x":378,"y":16},{"x":391,"y":53},{"x":394,"y":86},{"x":394,"y":242},{"x":388,"y":271},{"x":379,"y":301}]]
	},
	"യ": {
		"strokes": [[{"x":71,"y":37},{"x":74,"y":31},{"x":89,"y":19},{"x":116,"y":9},{"x":138,"y":5},{"x":170,"y":5},{"x":186,"y":12},{"x":192,"y":18},{"x":201,"y":32},{"x":204,"y":48},{"x":204,"y":84},{"x":200,"y":93},{"x":169,"y":132},{"x":158,"y":143},{"x":131,"y":160},{"x":115,"y":168},{"x":96,"y":173},{"x":66,"y":176},{"x":43,"y":176},{"x":27,"y":164},{"x":19,"y":156},{"x":9,"y":140},{"x":0,"y":102},{"x":0,"y":58},{"x":10,"y":41},{"x":30,"y":21},{"x":34,"y":21},{"x":38,"y":25},{"x":41,"y":33},{"x":59,"y":59},{"x":73,"y":75},{"x":90,"y":88},{"x":117,"y":114},{"x":131,"y":124},{"x":159,"y":138},{"x":197,"y":152},{"x":214,"y":152},{"x":221,"y":148},{"x":244,"y":121},{"x":247,"y":116},{"x":250,"y":104},{"x":254,"y":80},{"x":254,"y":29},{"x":249,"y":7},{"x":249,"y":0}]]
	},
	"ക":{
		"strokes": [[{"x":107,"y":72},{"x":107,"y":58},{"x":114,"y":39},{"x":121,"y":29},{"x":139,"y":12},{"x":145,"y":8},{"x":165,"y":0},{"x":186,"y":0},{"x":190,"y":4},{"x":195,"y":10},{"x":203,"y":28},{"x":206,"y":43},{"x":208,"y":66},{"x":208,"y":175},{"x":188,"y":205},{"x":168,"y":240},{"x":163,"y":245},{"x":156,"y":249},{"x":133,"y":250},{"x":127,"y":242},{"x":119,"y":225},{"x":115,"y":203},{"x":115,"y":151},{"x":114,"y":148},{"x":112,"y":148},{"x":107,"y":163},{"x":103,"y":201},{"x":100,"y":216},{"x":89,"y":238},{"x":76,"y":251},{"x":57,"y":262},{"x":41,"y":266},{"x":15,"y":267},{"x":9,"y":258},{"x":0,"y":236},{"x":0,"y":191},{"x":13,"y":171},{"x":36,"y":156},{"x":65,"y":144},{"x":74,"y":138},{"x":143,"y":111},{"x":174,"y":102},{"x":250,"y":102},{"x":256,"y":104},{"x":268,"y":112},{"x":277,"y":123},{"x":281,"y":141},{"x":281,"y":198},{"x":270,"y":225},{"x":266,"y":247}]]
	},
	"സ":{
		"strokes":[[{"x":0,"y":184},{"x":1,"y":92},{"x":5,"y":83},{"x":11,"y":76},{"x":24,"y":68},{"x":38,"y":68},{"x":47,"y":75},{"x":57,"y":89},{"x":84,"y":135},{"x":91,"y":160},{"x":95,"y":185},{"x":100,"y":145},{"x":113,"y":110},{"x":134,"y":77},{"x":144,"y":64},{"x":151,"y":58},{"x":162,"y":58},{"x":171,"y":73},{"x":184,"y":104},{"x":195,"y":122},{"x":203,"y":132},{"x":237,"y":171},{"x":253,"y":187},{"x":258,"y":190},{"x":274,"y":189},{"x":286,"y":180},{"x":290,"y":166},{"x":291,"y":66},{"x":289,"y":34},{"x":283,"y":8},{"x":283,"y":0}]]
	},
	"ശ":{
		"strokes": [[{"x":0,"y":33},{"x":0,"y":142},{"x":2,"y":146},{"x":16,"y":161},{"x":29,"y":165},{"x":41,"y":165},{"x":59,"y":153},{"x":86,"y":119},{"x":96,"y":103},{"x":103,"y":83},{"x":135,"y":16},{"x":144,"y":5},{"x":161,"y":0},{"x":179,"y":0},{"x":205,"y":23},{"x":218,"y":38},{"x":234,"y":63},{"x":239,"y":79},{"x":239,"y":126},{"x":232,"y":135},{"x":218,"y":144},{"x":200,"y":152},{"x":173,"y":152},{"x":171,"y":151},{"x":170,"y":148},{"x":167,"y":135},{"x":166,"y":55},{"x":192,"y":27},{"x":200,"y":23}]]
	},
	"്": {
		"strokes": [[{"x":0,"y":8},{"x":0,"y":29},{"x":12,"y":41},{"x":24,"y":46},{"x":52,"y":46},{"x":60,"y":42},{"x":64,"y":30},{"x":65,"y":0}]]
	},
	"ാ": {
		"strokes": [[{"x":0,"y":1},{"x":14,"y":0},{"x":29,"y":3},{"x":41,"y":14},{"x":49,"y":30},{"x":53,"y":45},{"x":53,"y":92},{"x":37,"y":105},{"x":17,"y":115},{"x":12,"y":116}]]
	},
	"മ": {
		"strokes": [[{"x":0,"y":111},{"x":0,"y":42},{"x":9,"y":18},{"x":11,"y":17},{"x":17,"y":7},{"x":25,"y":0},{"x":70,"y":0},{"x":133,"y":11},{"x":170,"y":12},{"x":170,"y":36},{"x":147,"y":74},{"x":107,"y":121},{"x":90,"y":135},{"x":57,"y":151},{"x":52,"y":155},{"x":33,"y":187},{"x":19,"y":205},{"x":7,"y":216},{"x":53,"y":209},{"x":95,"y":207},{"x":165,"y":207},{"x":177,"y":210},{"x":189,"y":210},{"x":189,"y":202},{"x":177,"y":184},{"x":165,"y":152},{"x":161,"y":131},{"x":153,"y":106},{"x":151,"y":95},{"x":151,"y":65}]]
	},
	"ഉ": {
		"strokes": [[{"x":39,"y":19},{"x":61,"y":21},{"x":74,"y":26},{"x":78,"y":29},{"x":87,"y":44},{"x":90,"y":55},{"x":90,"y":91},{"x":89,"y":94},{"x":83,"y":99},{"x":72,"y":105},{"x":65,"y":107},{"x":25,"y":108},{"x":18,"y":106},{"x":12,"y":98},{"x":8,"y":86},{"x":8,"y":36},{"x":16,"y":30},{"x":45,"y":21},{"x":72,"y":6},{"x":95,"y":0},{"x":116,"y":0},{"x":137,"y":15},{"x":143,"y":21},{"x":153,"y":38},{"x":159,"y":53},{"x":159,"y":88},{"x":142,"y":124},{"x":134,"y":136},{"x":120,"y":148},{"x":105,"y":155},{"x":64,"y":159},{"x":48,"y":163},{"x":24,"y":175},{"x":14,"y":185},{"x":1,"y":204},{"x":0,"y":224},{"x":2,"y":227},{"x":16,"y":238},{"x":29,"y":243},{"x":62,"y":248},{"x":123,"y":248},{"x":148,"y":243},{"x":208,"y":242}]]
	},
	"എ":{
		"strokes": [[{"x":11,"y":204},{"x":8,"y":204},{"x":1,"y":190},{"x":0,"y":150},{"x":2,"y":139},{"x":7,"y":132},{"x":26,"y":117},{"x":44,"y":114},{"x":58,"y":115},{"x":67,"y":123},{"x":75,"y":139},{"x":77,"y":153},{"x":77,"y":177},{"x":67,"y":197},{"x":67,"y":200},{"x":64,"y":202},{"x":64,"y":205},{"x":84,"y":205},{"x":109,"y":201},{"x":129,"y":200},{"x":162,"y":194},{"x":263,"y":194},{"x":273,"y":192},{"x":296,"y":192},{"x":296,"y":141},{"x":291,"y":117},{"x":290,"y":99},{"x":284,"y":84},{"x":284,"y":73},{"x":284,"y":101},{"x":296,"y":128},{"x":296,"y":185},{"x":275,"y":250},{"x":273,"y":254},{"x":265,"y":261},{"x":253,"y":269},{"x":237,"y":275},{"x":199,"y":275},{"x":195,"y":274},{"x":188,"y":269},{"x":185,"y":264},{"x":173,"y":238},{"x":171,"y":225},{"x":168,"y":176},{"x":168,"y":72},{"x":181,"y":44},{"x":194,"y":29},{"x":211,"y":15},{"x":228,"y":7},{"x":250,"y":0},{"x":277,"y":0},{"x":286,"y":4},{"x":292,"y":9},{"x":314,"y":33},{"x":329,"y":50},{"x":337,"y":66},{"x":346,"y":96},{"x":357,"y":174},{"x":358,"y":247}]]
	},
	"െ": {
		"strokes": [[{"x":36,"y":39},{"x":52,"y":50},{"x":69,"y":58},{"x":82,"y":67},{"x":107,"y":102},{"x":115,"y":134},{"x":116,"y":179},{"x":115,"y":182},{"x":109,"y":187},{"x":77,"y":205},{"x":66,"y":207},{"x":27,"y":207},{"x":11,"y":201},{"x":4,"y":189},{"x":0,"y":177},{"x":1,"y":114},{"x":12,"y":87},{"x":21,"y":71},{"x":33,"y":43},{"x":56,"y":23},{"x":88,"y":4},{"x":98,"y":0},{"x":118,"y":0},{"x":125,"y":1},{"x":158,"y":26},{"x":207,"y":79},{"x":219,"y":103},{"x":224,"y":126},{"x":224,"y":194},{"x":222,"y":206}]]
	},
	"വ":{
		"strokes": [[{"x":2,"y":202},{"x":2,"y":179},{"x":0,"y":167},{"x":0,"y":77},{"x":7,"y":52},{"x":35,"y":24},{"x":40,"y":23},{"x":50,"y":17},{"x":65,"y":16},{"x":89,"y":30},{"x":108,"y":39},{"x":126,"y":55},{"x":139,"y":70},{"x":141,"y":76},{"x":146,"y":99},{"x":146,"y":148},{"x":140,"y":166},{"x":130,"y":184},{"x":123,"y":195},{"x":115,"y":200},{"x":110,"y":206},{"x":267,"y":206},{"x":267,"y":167},{"x":263,"y":135},{"x":262,"y":86},{"x":258,"y":56},{"x":251,"y":27},{"x":251,"y":0}]]
	},
	"പ":{
		"strokes": [[{"x":11,"y":329},{"x":10,"y":316},{"x":4,"y":303},{"x":0,"y":279},{"x":0,"y":233},{"x":2,"y":225},{"x":19,"y":202},{"x":34,"y":188},{"x":47,"y":182},{"x":72,"y":182},{"x":89,"y":190},{"x":96,"y":202},{"x":99,"y":215},{"x":99,"y":302},{"x":95,"y":315},{"x":135,"y":307},{"x":182,"y":305},{"x":263,"y":305},{"x":296,"y":309},{"x":315,"y":313},{"x":364,"y":315},{"x":376,"y":318},{"x":384,"y":322},{"x":392,"y":322},{"x":393,"y":90},{"x":396,"y":83},{"x":403,"y":49},{"x":405,"y":28},{"x":405,"y":0},{"x":392,"y":3}]]
	},
	"ഷ":{
		"strokes": [[{"x":14,"y":280},{"x":9,"y":280},{"x":6,"y":278},{"x":0,"y":261},{"x":0,"y":219},{"x":2,"y":214},{"x":23,"y":196},{"x":32,"y":191},{"x":50,"y":184},{"x":60,"y":183},{"x":86,"y":183},{"x":89,"y":185},{"x":94,"y":194},{"x":101,"y":219},{"x":102,"y":256},{"x":101,"y":259},{"x":93,"y":266},{"x":126,"y":268},{"x":231,"y":285},{"x":278,"y":285},{"x":293,"y":282},{"x":336,"y":256},{"x":339,"y":256},{"x":347,"y":251},{"x":355,"y":251},{"x":355,"y":182},{"x":357,"y":137},{"x":357,"y":1},{"x":355,"y":0},{"x":347,"y":0},{"x":341,"y":2},{"x":325,"y":26},{"x":292,"y":57},{"x":277,"y":76},{"x":263,"y":87},{"x":250,"y":100},{"x":236,"y":108},{"x":208,"y":115},{"x":198,"y":115},{"x":191,"y":110},{"x":156,"y":94},{"x":147,"y":80},{"x":144,"y":71},{"x":143,"y":34},{"x":147,"y":29},{"x":158,"y":21},{"x":174,"y":13},{"x":192,"y":13},{"x":199,"y":31},{"x":200,"y":50},{"x":202,"y":55},{"x":205,"y":83},{"x":206,"y":149},{"x":213,"y":165},{"x":219,"y":174},{"x":224,"y":195},{"x":224,"y":252},{"x":220,"y":266},{"x":217,"y":286}]]
	},
	"ഇ":{
		"strokes": [[{"x":33,"y":39},{"x":38,"y":39},{"x":53,"y":59},{"x":53,"y":86},{"x":48,"y":88},{"x":23,"y":89},{"x":8,"y":76},{"x":3,"y":68},{"x":1,"y":59},{"x":0,"y":31},{"x":2,"y":22},{"x":5,"y":17},{"x":12,"y":11},{"x":24,"y":5},{"x":37,"y":1},{"x":75,"y":0},{"x":93,"y":3},{"x":122,"y":24},{"x":129,"y":33},{"x":132,"y":55},{"x":132,"y":95},{"x":132,"y":51},{"x":134,"y":41},{"x":138,"y":34},{"x":151,"y":22},{"x":164,"y":13},{"x":186,"y":7},{"x":211,"y":7},{"x":216,"y":9},{"x":232,"y":22},{"x":247,"y":52},{"x":248,"y":102},{"x":233,"y":119},{"x":224,"y":125},{"x":211,"y":130},{"x":167,"y":138},{"x":121,"y":142},{"x":88,"y":147},{"x":65,"y":151},{"x":43,"y":158},{"x":31,"y":166},{"x":20,"y":171},{"x":15,"y":176},{"x":13,"y":182},{"x":13,"y":201},{"x":31,"y":211},{"x":36,"y":212},{"x":85,"y":215},{"x":140,"y":215},{"x":194,"y":207},{"x":256,"y":207}]]
	},
	"േ":{
		"strokes": [[{"x":4,"y":67},{"x":4,"y":79},{"x":18,"y":89},{"x":40,"y":95},{"x":67,"y":95},{"x":73,"y":93},{"x":100,"y":61},{"x":106,"y":43},{"x":106,"y":22},{"x":87,"y":4},{"x":82,"y":2},{"x":76,"y":0},{"x":50,"y":0},{"x":42,"y":5},{"x":27,"y":20},{"x":17,"y":36},{"x":11,"y":42},{"x":0,"y":75},{"x":0,"y":222},{"x":6,"y":229},{"x":18,"y":237},{"x":41,"y":260},{"x":63,"y":272},{"x":107,"y":272},{"x":117,"y":266},{"x":126,"y":257},{"x":129,"y":250},{"x":129,"y":217},{"x":127,"y":212},{"x":120,"y":206},{"x":111,"y":202},{"x":100,"y":200},{"x":60,"y":200},{"x":43,"y":206},{"x":23,"y":218},{"x":16,"y":230},{"x":16,"y":234}]]
	},
	"ഴ": {
		"strokes": [[{"x":2,"y":11},{"x":0,"y":19},{"x":0,"y":73},{"x":2,"y":79},{"x":22,"y":107},{"x":37,"y":122},{"x":49,"y":131},{"x":63,"y":135},{"x":88,"y":137},{"x":143,"y":137},{"x":175,"y":121},{"x":191,"y":109},{"x":210,"y":81},{"x":210,"y":45},{"x":195,"y":20},{"x":188,"y":12},{"x":173,"y":3},{"x":159,"y":0},{"x":119,"y":0},{"x":106,"y":9},{"x":100,"y":22},{"x":100,"y":61},{"x":106,"y":72},{"x":131,"y":101},{"x":143,"y":129},{"x":151,"y":168},{"x":154,"y":194},{"x":154,"y":217},{"x":137,"y":235},{"x":127,"y":241},{"x":111,"y":245},{"x":84,"y":244},{"x":64,"y":229},{"x":42,"y":218}]]
	},
	"അ": {
		"strokes": [[{"x":36,"y":228},{"x":33,"y":227},{"x":23,"y":216},{"x":15,"y":193},{"x":5,"y":150},{"x":0,"y":120},{"x":0,"y":95},{"x":2,"y":79},{"x":6,"y":72},{"x":33,"y":38},{"x":43,"y":28},{"x":52,"y":22},{"x":70,"y":16},{"x":90,"y":14},{"x":139,"y":15},{"x":156,"y":20},{"x":164,"y":24},{"x":170,"y":30},{"x":179,"y":54},{"x":179,"y":66},{"x":177,"y":73},{"x":173,"y":79},{"x":169,"y":91},{"x":161,"y":104},{"x":143,"y":121},{"x":134,"y":126},{"x":164,"y":135},{"x":184,"y":147},{"x":201,"y":164},{"x":206,"y":172},{"x":210,"y":185},{"x":210,"y":197},{"x":207,"y":208},{"x":193,"y":224},{"x":179,"y":227},{"x":160,"y":228},{"x":145,"y":222},{"x":120,"y":208},{"x":105,"y":192},{"x":96,"y":179},{"x":90,"y":169},{"x":86,"y":157},{"x":81,"y":137},{"x":81,"y":125},{"x":84,"y":115},{"x":96,"y":88},{"x":105,"y":79},{"x":116,"y":72},{"x":132,"y":64},{"x":161,"y":53},{"x":174,"y":46},{"x":225,"y":35},{"x":244,"y":29},{"x":250,"y":29},{"x":263,"y":44},{"x":273,"y":67},{"x":288,"y":113},{"x":292,"y":138},{"x":299,"y":156},{"x":306,"y":167},{"x":306,"y":172},{"x":312,"y":181},{"x":318,"y":227},{"x":315,"y":221},{"x":312,"y":206},{"x":305,"y":194},{"x":299,"y":175},{"x":294,"y":147},{"x":294,"y":133},{"x":297,"y":117},{"x":302,"y":103},{"x":306,"y":97},{"x":314,"y":76},{"x":320,"y":67},{"x":326,"y":52},{"x":345,"y":29},{"x":360,"y":16},{"x":370,"y":10},{"x":390,"y":3},{"x":411,"y":0},{"x":426,"y":0},{"x":438,"y":4},{"x":450,"y":5},{"x":461,"y":8},{"x":485,"y":25},{"x":490,"y":32},{"x":516,"y":59},{"x":531,"y":98},{"x":533,"y":112},{"x":540,"y":138},{"x":541,"y":159},{"x":524,"y":185},{"x":506,"y":200},{"x":479,"y":217},{"x":468,"y":217},{"x":455,"y":214},{"x":438,"y":205},{"x":425,"y":193},{"x":415,"y":175},{"x":411,"y":164},{"x":411,"y":131},{"x":415,"y":114},{"x":425,"y":86},{"x":437,"y":68},{"x":453,"y":51},{"x":479,"y":33},{"x":489,"y":32}]]
	},
	"ആ":{
		"strokes": [[{"x":52,"y":316},{"x":42,"y":305},{"x":25,"y":257},{"x":24,"y":248},{"x":20,"y":235},{"x":19,"y":217},{"x":16,"y":207},{"x":16,"y":192},{"x":13,"y":185},{"x":8,"y":160},{"x":2,"y":143},{"x":0,"y":125},{"x":0,"y":118},{"x":4,"y":99},{"x":11,"y":84},{"x":18,"y":75},{"x":41,"y":56},{"x":77,"y":40},{"x":123,"y":27},{"x":163,"y":25},{"x":181,"y":30},{"x":202,"y":31},{"x":209,"y":38},{"x":213,"y":44},{"x":216,"y":54},{"x":221,"y":89},{"x":226,"y":109},{"x":224,"y":132},{"x":218,"y":143},{"x":210,"y":151},{"x":178,"y":172},{"x":176,"y":172},{"x":226,"y":168},{"x":231,"y":169},{"x":240,"y":175},{"x":253,"y":191},{"x":257,"y":200},{"x":262,"y":217},{"x":265,"y":235},{"x":262,"y":247},{"x":252,"y":258},{"x":243,"y":264},{"x":235,"y":272},{"x":211,"y":283},{"x":199,"y":283},{"x":156,"y":276},{"x":143,"y":271},{"x":130,"y":264},{"x":114,"y":251},{"x":103,"y":229},{"x":99,"y":217},{"x":102,"y":163},{"x":110,"y":140},{"x":111,"y":132},{"x":118,"y":110},{"x":136,"y":86},{"x":144,"y":80},{"x":155,"y":68},{"x":171,"y":57},{"x":188,"y":42},{"x":200,"y":35},{"x":219,"y":31},{"x":236,"y":30},{"x":246,"y":32},{"x":252,"y":36},{"x":265,"y":52},{"x":274,"y":72},{"x":284,"y":96},{"x":311,"y":172},{"x":321,"y":195},{"x":327,"y":220},{"x":329,"y":250},{"x":326,"y":248},{"x":323,"y":238},{"x":323,"y":200},{"x":319,"y":183},{"x":319,"y":167},{"x":306,"y":112},{"x":303,"y":82},{"x":304,"y":76},{"x":308,"y":69},{"x":317,"y":60},{"x":320,"y":54},{"x":340,"y":36},{"x":389,"y":6},{"x":412,"y":0},{"x":453,"y":2},{"x":474,"y":9},{"x":488,"y":21},{"x":506,"y":55},{"x":512,"y":70},{"x":529,"y":139},{"x":533,"y":204},{"x":531,"y":208},{"x":515,"y":225},{"x":483,"y":239},{"x":462,"y":242},{"x":452,"y":239},{"x":443,"y":233},{"x":426,"y":215},{"x":414,"y":198},{"x":408,"y":173},{"x":408,"y":164},{"x":411,"y":150},{"x":425,"y":126},{"x":435,"y":113},{"x":459,"y":100},{"x":485,"y":91},{"x":508,"y":88},{"x":531,"y":88},{"x":548,"y":93},{"x":571,"y":107},{"x":594,"y":136},{"x":608,"y":178},{"x":614,"y":207},{"x":616,"y":234},{"x":606,"y":265},{"x":598,"y":277},{"x":588,"y":307},{"x":575,"y":333},{"x":566,"y":343},{"x":535,"y":363},{"x":518,"y":372},{"x":460,"y":390},{"x":441,"y":394},{"x":428,"y":399}]]
	},
	"ൗ": {
		"strokes": [[{"x":28,"y":109},{"x":21,"y":103},{"x":16,"y":93},{"x":3,"y":58},{"x":0,"y":36},{"x":2,"y":28},{"x":12,"y":10},{"x":17,"y":5},{"x":25,"y":1},{"x":49,"y":0},{"x":69,"y":6},{"x":75,"y":8},{"x":91,"y":18},{"x":100,"y":21},{"x":117,"y":31},{"x":126,"y":40},{"x":139,"y":59},{"x":147,"y":81},{"x":152,"y":99},{"x":151,"y":100},{"x":150,"y":93},{"x":157,"y":74},{"x":172,"y":45},{"x":181,"y":37},{"x":206,"y":23},{"x":228,"y":15},{"x":250,"y":14},{"x":264,"y":20},{"x":288,"y":24},{"x":293,"y":26},{"x":300,"y":32},{"x":307,"y":44},{"x":312,"y":58},{"x":325,"y":126},{"x":327,"y":150},{"x":327,"y":181},{"x":326,"y":196},{"x":321,"y":217},{"x":309,"y":237},{"x":298,"y":249},{"x":273,"y":285},{"x":258,"y":298},{"x":241,"y":307},{"x":225,"y":309},{"x":190,"y":309},{"x":175,"y":307}]]
	},
	"ു": {
		"strokes": [[{"x":22,"y":0},{"x":38,"y":11},{"x":51,"y":23},{"x":70,"y":37},{"x":81,"y":49},{"x":106,"y":90},{"x":118,"y":116},{"x":129,"y":147},{"x":128,"y":179},{"x":124,"y":197},{"x":119,"y":210},{"x":97,"y":234},{"x":87,"y":255},{"x":83,"y":259},{"x":76,"y":271},{"x":54,"y":298},{"x":69,"y":286},{"x":82,"y":272},{"x":102,"y":266},{"x":122,"y":267},{"x":131,"y":270},{"x":145,"y":272},{"x":169,"y":280},{"x":173,"y":283},{"x":195,"y":310},{"x":204,"y":329},{"x":215,"y":346},{"x":218,"y":357},{"x":220,"y":377},{"x":212,"y":394},{"x":204,"y":400},{"x":195,"y":404},{"x":160,"y":414},{"x":91,"y":413},{"x":73,"y":409},{"x":40,"y":398},{"x":34,"y":394},{"x":18,"y":388},{"x":7,"y":376},{"x":0,"y":362},{"x":0,"y":351},{"x":4,"y":340},{"x":25,"y":312},{"x":35,"y":304},{"x":48,"y":297},{"x":61,"y":293},{"x":65,"y":290}]]
	},
	"ജ":{
		"strokes": [[{"x":55,"y":120},{"x":61,"y":116},{"x":78,"y":110},{"x":89,"y":109},{"x":105,"y":119},{"x":111,"y":125},{"x":118,"y":139},{"x":121,"y":151},{"x":120,"y":172},{"x":108,"y":207},{"x":99,"y":219},{"x":84,"y":234},{"x":79,"y":237},{"x":70,"y":238},{"x":60,"y":235},{"x":42,"y":217},{"x":22,"y":191},{"x":8,"y":158},{"x":0,"y":109},{"x":0,"y":91},{"x":6,"y":67},{"x":13,"y":54},{"x":26,"y":41},{"x":54,"y":21},{"x":98,"y":7},{"x":125,"y":8},{"x":151,"y":18},{"x":172,"y":31},{"x":178,"y":37},{"x":183,"y":50},{"x":191,"y":64},{"x":193,"y":74},{"x":205,"y":109},{"x":205,"y":143},{"x":201,"y":159},{"x":200,"y":161},{"x":197,"y":162},{"x":197,"y":156},{"x":203,"y":142},{"x":207,"y":125},{"x":208,"y":80},{"x":215,"y":63},{"x":226,"y":50},{"x":236,"y":44},{"x":284,"y":24},{"x":337,"y":6},{"x":361,"y":0},{"x":368,"y":0},{"x":378,"y":3},{"x":382,"y":5},{"x":387,"y":11},{"x":401,"y":38},{"x":413,"y":69},{"x":419,"y":116},{"x":420,"y":143},{"x":415,"y":167},{"x":401,"y":203},{"x":383,"y":228},{"x":372,"y":235},{"x":349,"y":242},{"x":232,"y":263},{"x":223,"y":267},{"x":208,"y":270},{"x":176,"y":280},{"x":158,"y":280},{"x":136,"y":276},{"x":119,"y":276},{"x":95,"y":280},{"x":78,"y":285},{"x":59,"y":300},{"x":54,"y":307},{"x":54,"y":320},{"x":62,"y":329},{"x":69,"y":345},{"x":81,"y":363},{"x":84,"y":365},{"x":102,"y":373},{"x":125,"y":379},{"x":138,"y":385},{"x":160,"y":390},{"x":184,"y":393},{"x":196,"y":386},{"x":203,"y":378},{"x":212,"y":356},{"x":218,"y":349},{"x":226,"y":334},{"x":240,"y":319},{"x":244,"y":312},{"x":273,"y":288},{"x":294,"y":275},{"x":327,"y":246},{"x":387,"y":226},{"x":393,"y":226},{"x":410,"y":231},{"x":416,"y":235},{"x":430,"y":249},{"x":436,"y":259},{"x":453,"y":297},{"x":457,"y":316},{"x":457,"y":324},{"x":453,"y":329},{"x":444,"y":348},{"x":438,"y":356},{"x":414,"y":370},{"x":366,"y":372},{"x":362,"y":371},{"x":341,"y":358},{"x":334,"y":350},{"x":318,"y":313},{"x":318,"y":293},{"x":319,"y":279},{"x":325,"y":269},{"x":328,"y":258},{"x":342,"y":238}]]
	},
	"ണ": {
		"strokes": [[{"x":17,"y":211},{"x":22,"y":205},{"x":25,"y":204},{"x":54,"y":200},{"x":60,"y":201},{"x":67,"y":204},{"x":88,"y":223},{"x":110,"y":240},{"x":117,"y":253},{"x":120,"y":274},{"x":118,"y":286},{"x":111,"y":300},{"x":104,"y":308},{"x":77,"y":321},{"x":71,"y":322},{"x":64,"y":321},{"x":58,"y":318},{"x":48,"y":310},{"x":36,"y":296},{"x":14,"y":254},{"x":3,"y":215},{"x":0,"y":194},{"x":12,"y":152},{"x":16,"y":145},{"x":29,"y":132},{"x":39,"y":126},{"x":56,"y":112},{"x":79,"y":101},{"x":92,"y":96},{"x":111,"y":95},{"x":146,"y":112},{"x":161,"y":127},{"x":180,"y":156},{"x":208,"y":223},{"x":208,"y":235},{"x":214,"y":249},{"x":218,"y":275},{"x":216,"y":274},{"x":214,"y":266},{"x":211,"y":234},{"x":212,"y":204},{"x":209,"y":175},{"x":209,"y":157},{"x":210,"y":145},{"x":213,"y":135},{"x":223,"y":108},{"x":233,"y":90},{"x":241,"y":81},{"x":265,"y":70},{"x":288,"y":70},{"x":301,"y":75},{"x":322,"y":90},{"x":343,"y":112},{"x":370,"y":147},{"x":376,"y":158},{"x":382,"y":178},{"x":386,"y":206},{"x":386,"y":235},{"x":389,"y":246},{"x":393,"y":250},{"x":389,"y":244},{"x":381,"y":216},{"x":373,"y":175},{"x":364,"y":144},{"x":360,"y":124},{"x":359,"y":114},{"x":366,"y":91},{"x":373,"y":78},{"x":400,"y":52},{"x":443,"y":19},{"x":458,"y":12},{"x":479,"y":5},{"x":503,"y":0},{"x":516,"y":0},{"x":529,"y":5},{"x":545,"y":14},{"x":563,"y":36},{"x":574,"y":55},{"x":587,"y":90},{"x":599,"y":138},{"x":608,"y":159},{"x":612,"y":178},{"x":620,"y":198},{"x":622,"y":206},{"x":620,"y":217},{"x":601,"y":252},{"x":589,"y":266},{"x":588,"y":269}]]
	},
	"ട": {
		"strokes": [[{"x":236,"y":8},{"x":190,"y":0},{"x":179,"y":0},{"x":172,"y":2},{"x":162,"y":2},{"x":153,"y":5},{"x":143,"y":5},{"x":102,"y":17},{"x":79,"y":20},{"x":58,"y":34},{"x":33,"y":57},{"x":21,"y":72},{"x":21,"y":82},{"x":31,"y":98},{"x":44,"y":114},{"x":57,"y":127},{"x":70,"y":136},{"x":77,"y":137},{"x":81,"y":140},{"x":110,"y":150},{"x":154,"y":158},{"x":168,"y":159},{"x":176,"y":162},{"x":181,"y":166},{"x":204,"y":177},{"x":212,"y":183},{"x":229,"y":190},{"x":237,"y":195},{"x":258,"y":213},{"x":301,"y":238},{"x":313,"y":249},{"x":322,"y":270},{"x":326,"y":291},{"x":326,"y":312},{"x":322,"y":323},{"x":305,"y":352},{"x":301,"y":363},{"x":290,"y":378},{"x":263,"y":401},{"x":249,"y":407},{"x":219,"y":408},{"x":188,"y":399},{"x":151,"y":393},{"x":102,"y":376},{"x":57,"y":365},{"x":30,"y":352},{"x":18,"y":341},{"x":13,"y":333},{"x":0,"y":303}]]
	},
	"s": {
		"strokes": [[{"x":236,"y":8},{"x":190,"y":0},{"x":179,"y":0},{"x":172,"y":2},{"x":162,"y":2},{"x":153,"y":5},{"x":143,"y":5},{"x":102,"y":17},{"x":79,"y":20},{"x":58,"y":34},{"x":33,"y":57},{"x":21,"y":72},{"x":21,"y":82},{"x":31,"y":98},{"x":44,"y":114},{"x":57,"y":127},{"x":70,"y":136},{"x":77,"y":137},{"x":81,"y":140},{"x":110,"y":150},{"x":154,"y":158},{"x":168,"y":159},{"x":176,"y":162},{"x":181,"y":166},{"x":204,"y":177},{"x":212,"y":183},{"x":229,"y":190},{"x":237,"y":195},{"x":258,"y":213},{"x":301,"y":238},{"x":313,"y":249},{"x":322,"y":270},{"x":326,"y":291},{"x":326,"y":312},{"x":322,"y":323},{"x":305,"y":352},{"x":301,"y":363},{"x":290,"y":378},{"x":263,"y":401},{"x":249,"y":407},{"x":219,"y":408},{"x":188,"y":399},{"x":151,"y":393},{"x":102,"y":376},{"x":57,"y":365},{"x":30,"y":352},{"x":18,"y":341},{"x":13,"y":333},{"x":0,"y":303}]]
	},
	"S": {
		"strokes": [[{"x":236,"y":8},{"x":190,"y":0},{"x":179,"y":0},{"x":172,"y":2},{"x":162,"y":2},{"x":153,"y":5},{"x":143,"y":5},{"x":102,"y":17},{"x":79,"y":20},{"x":58,"y":34},{"x":33,"y":57},{"x":21,"y":72},{"x":21,"y":82},{"x":31,"y":98},{"x":44,"y":114},{"x":57,"y":127},{"x":70,"y":136},{"x":77,"y":137},{"x":81,"y":140},{"x":110,"y":150},{"x":154,"y":158},{"x":168,"y":159},{"x":176,"y":162},{"x":181,"y":166},{"x":204,"y":177},{"x":212,"y":183},{"x":229,"y":190},{"x":237,"y":195},{"x":258,"y":213},{"x":301,"y":238},{"x":313,"y":249},{"x":322,"y":270},{"x":326,"y":291},{"x":326,"y":312},{"x":322,"y":323},{"x":305,"y":352},{"x":301,"y":363},{"x":290,"y":378},{"x":263,"y":401},{"x":249,"y":407},{"x":219,"y":408},{"x":188,"y":399},{"x":151,"y":393},{"x":102,"y":376},{"x":57,"y":365},{"x":30,"y":352},{"x":18,"y":341},{"x":13,"y":333},{"x":0,"y":303}]]
	},
	"്യ": {
		"strokes": [[{"x":88,"y":207},{"x":63,"y":204},{"x":22,"y":215},{"x":16,"y":218},{"x":5,"y":227},{"x":2,"y":237},{"x":0,"y":257},{"x":0,"y":270},{"x":4,"y":279},{"x":10,"y":289},{"x":33,"y":316},{"x":52,"y":327},{"x":78,"y":334},{"x":102,"y":332},{"x":119,"y":322},{"x":165,"y":286},{"x":178,"y":271},{"x":188,"y":241},{"x":190,"y":177},{"x":183,"y":98},{"x":169,"y":52},{"x":161,"y":11},{"x":157,"y":0}]]
	},
	"ഗ": {
		"strokes": [[{"x":25,"y":54},{"x":15,"y":73},{"x":5,"y":102},{"x":0,"y":136},{"x":0,"y":157},{"x":16,"y":211},{"x":20,"y":223},{"x":29,"y":238},{"x":54,"y":267},{"x":89,"y":288},{"x":103,"y":291},{"x":151,"y":277},{"x":164,"y":257},{"x":176,"y":227},{"x":186,"y":172},{"x":199,"y":116},{"x":213,"y":74},{"x":222,"y":56},{"x":228,"y":49},{"x":264,"y":15},{"x":273,"y":10},{"x":292,"y":3},{"x":313,"y":0},{"x":358,"y":15},{"x":386,"y":31},{"x":406,"y":40},{"x":416,"y":48},{"x":449,"y":90},{"x":459,"y":107},{"x":464,"y":122},{"x":473,"y":181},{"x":461,"y":208},{"x":451,"y":220},{"x":444,"y":232},{"x":429,"y":248},{"x":414,"y":258},{"x":388,"y":270},{"x":369,"y":276},{"x":357,"y":283},{"x":342,"y":289},{"x":326,"y":300}]]
	},
	"ദ": {
		"strokes": [[{"x":89,"y":321},{"x":82,"y":317},{"x":71,"y":306},{"x":36,"y":242},{"x":12,"y":203},{"x":1,"y":145},{"x":1,"y":93},{"x":5,"y":76},{"x":9,"y":70},{"x":15,"y":63},{"x":32,"y":49},{"x":45,"y":34},{"x":54,"y":27},{"x":74,"y":13},{"x":127,"y":0},{"x":142,"y":0},{"x":190,"y":10},{"x":222,"y":23},{"x":249,"y":41},{"x":254,"y":46},{"x":261,"y":59},{"x":266,"y":80},{"x":267,"y":89},{"x":263,"y":111},{"x":255,"y":128},{"x":243,"y":147},{"x":225,"y":160},{"x":208,"y":176},{"x":230,"y":174},{"x":245,"y":177},{"x":256,"y":181},{"x":274,"y":183},{"x":282,"y":186},{"x":289,"y":192},{"x":295,"y":200},{"x":298,"y":207},{"x":299,"y":251},{"x":292,"y":262},{"x":291,"y":271},{"x":285,"y":279},{"x":283,"y":286},{"x":257,"y":315},{"x":248,"y":320},{"x":234,"y":321},{"x":229,"y":318},{"x":211,"y":313},{"x":180,"y":310}]]
	},
	"ബ": {
		"strokes": [[{"x":51,"y":135},{"x":57,"y":136},{"x":75,"y":153},{"x":89,"y":176},{"x":89,"y":200},{"x":84,"y":212},{"x":78,"y":219},{"x":68,"y":222},{"x":54,"y":221},{"x":42,"y":214},{"x":31,"y":204},{"x":14,"y":181},{"x":0,"y":149},{"x":1,"y":116},{"x":5,"y":105},{"x":11,"y":101},{"x":37,"y":76},{"x":67,"y":60},{"x":89,"y":55},{"x":109,"y":55},{"x":123,"y":60},{"x":149,"y":77},{"x":165,"y":93},{"x":177,"y":109},{"x":184,"y":123},{"x":202,"y":148},{"x":207,"y":162},{"x":217,"y":177},{"x":221,"y":189},{"x":224,"y":209},{"x":220,"y":184},{"x":209,"y":150},{"x":207,"y":134},{"x":209,"y":113},{"x":221,"y":79},{"x":232,"y":63},{"x":246,"y":49},{"x":253,"y":46},{"x":263,"y":37},{"x":287,"y":30},{"x":320,"y":29},{"x":344,"y":35},{"x":357,"y":40},{"x":366,"y":48},{"x":383,"y":83},{"x":400,"y":124},{"x":411,"y":144},{"x":422,"y":171},{"x":416,"y":187},{"x":394,"y":211},{"x":382,"y":219},{"x":408,"y":214},{"x":448,"y":210},{"x":478,"y":203},{"x":494,"y":203},{"x":492,"y":201},{"x":487,"y":182},{"x":477,"y":161},{"x":470,"y":135},{"x":458,"y":103},{"x":454,"y":84},{"x":453,"y":69},{"x":461,"y":0}]]
	},
	"ഹ": {
		"strokes": [[{"x":56,"y":329},{"x":37,"y":310},{"x":19,"y":288},{"x":10,"y":269},{"x":4,"y":251},{"x":0,"y":232},{"x":4,"y":218},{"x":14,"y":201},{"x":31,"y":187},{"x":45,"y":182},{"x":60,"y":182},{"x":75,"y":185},{"x":96,"y":193},{"x":115,"y":213},{"x":126,"y":219},{"x":137,"y":232},{"x":156,"y":277},{"x":157,"y":289},{"x":156,"y":295},{"x":139,"y":328},{"x":135,"y":332},{"x":153,"y":328},{"x":178,"y":325},{"x":234,"y":324},{"x":256,"y":322},{"x":346,"y":308},{"x":412,"y":310},{"x":482,"y":310},{"x":514,"y":312},{"x":586,"y":312},{"x":599,"y":309},{"x":575,"y":301},{"x":542,"y":295},{"x":508,"y":283},{"x":473,"y":260},{"x":438,"y":230},{"x":407,"y":196},{"x":401,"y":179},{"x":377,"y":127},{"x":372,"y":106},{"x":374,"y":89},{"x":378,"y":74},{"x":394,"y":45},{"x":399,"y":40},{"x":424,"y":28},{"x":515,"y":5},{"x":539,"y":2},{"x":672,"y":0},{"x":717,"y":8},{"x":726,"y":11},{"x":731,"y":15},{"x":740,"y":27},{"x":757,"y":56},{"x":769,"y":81},{"x":784,"y":156},{"x":785,"y":205},{"x":783,"y":225},{"x":777,"y":247},{"x":742,"y":303},{"x":730,"y":320},{"x":727,"y":321},{"x":727,"y":325}]]
	}
}
